m1 équipe sac (taille: 200)
m1 équipe bâton (niveau: 2)
m1 ramasse rune cible
m1 ramasse rune cible
m1 ramasse rune cible
m1 ramasse rune dommages (dommages: -5)
m1 ramasse rune dommages (dommages: -10)
m1 ramasse rune soin (soin: 15)
m1 prépare un sort
m1 lance un sort
m3 perd 15 points de vie
m2 perd 15 points de vie
m1 prépare un sort
m1 lance un sort
m1 gagne 15 points de vie
m1 (niveau: 2, vie: 200, mana: 105)
m2 (niveau: 1, vie: 85, mana: 100)
m3 (niveau: 1, vie: 85, mana: 100)
